{
    "response": {
        "status": "ok",
        "userTier": "developer",
        "total": 2430672,
        "startIndex": 1,
        "pageSize": 10,
        "currentPage": 1,
        "pages": 243068,
        "orderBy": "newest",
        "results": [
            {
                "id": "politics/2023/jun/11/senior-tories-tell-boris-johnson-and-allies-to-shut-up-and-go-away",
                "type": "article",
                "sectionId": "politics",
                "sectionName": "Politics",
                "webPublicationDate": "2023-06-11T19:07:10Z",
                "webTitle": "Senior Tories tell Boris Johnson and allies to ‘shut up and go away’",
                "webUrl": "https://www.theguardian.com/politics/2023/jun/11/senior-tories-tell-boris-johnson-and-allies-to-shut-up-and-go-away",
                "apiUrl": "https://content.guardianapis.com/politics/2023/jun/11/senior-tories-tell-boris-johnson-and-allies-to-shut-up-and-go-away",
                "isHosted": false,
                "pillarId": "pillar/news",
                "pillarName": "News"
            },
            {
                "id": "tv-and-radio/2023/jun/11/elizabeth-a-life-through-the-lens-review-the-late-queens-reign-looks-like-one-long-marketing-campaign",
                "type": "article",
                "sectionId": "tv-and-radio",
                "sectionName": "Television & radio",
                "webPublicationDate": "2023-06-11T19:00:00Z",
                "webTitle": "Elizabeth: A Life Through the Lens review – the late queen’s reign looks like one long marketing campaign",
                "webUrl": "https://www.theguardian.com/tv-and-radio/2023/jun/11/elizabeth-a-life-through-the-lens-review-the-late-queens-reign-looks-like-one-long-marketing-campaign",
                "apiUrl": "https://content.guardianapis.com/tv-and-radio/2023/jun/11/elizabeth-a-life-through-the-lens-review-the-late-queens-reign-looks-like-one-long-marketing-campaign",
                "isHosted": false,
                "pillarId": "pillar/arts",
                "pillarName": "Arts"
            },
            {
                "id": "environment/2023/jun/11/yorkshire-water-bosss-decision-to-forgo-bonus-labelled-hollow-by-union",
                "type": "article",
                "sectionId": "environment",
                "sectionName": "Environment",
                "webPublicationDate": "2023-06-11T19:00:00Z",
                "webTitle": "Yorkshire Water boss’s decision to forgo bonus labelled ‘hollow’ by union",
                "webUrl": "https://www.theguardian.com/environment/2023/jun/11/yorkshire-water-bosss-decision-to-forgo-bonus-labelled-hollow-by-union",
                "apiUrl": "https://content.guardianapis.com/environment/2023/jun/11/yorkshire-water-bosss-decision-to-forgo-bonus-labelled-hollow-by-union",
                "isHosted": false,
                "pillarId": "pillar/news",
                "pillarName": "News"
            },
            {
                "id": "sport/blog/2023/jun/11/novak-djokovic-french-open-victory",
                "type": "article",
                "sectionId": "sport",
                "sectionName": "Sport",
                "webPublicationDate": "2023-06-11T18:53:05Z",
                "webTitle": "All-conquering Novak Djokovic moves into house that Rafael Nadal built",
                "webUrl": "https://www.theguardian.com/sport/blog/2023/jun/11/novak-djokovic-french-open-victory",
                "apiUrl": "https://content.guardianapis.com/sport/blog/2023/jun/11/novak-djokovic-french-open-victory",
                "isHosted": false,
                "pillarId": "pillar/sport",
                "pillarName": "Sport"
            },
            {
                "id": "politics/2023/jun/11/sturgeons-arrest-draws-focus-away-from-snp-policy-and-back-to-police-inquiry",
                "type": "article",
                "sectionId": "politics",
                "sectionName": "Politics",
                "webPublicationDate": "2023-06-11T18:33:07Z",
                "webTitle": "Sturgeon’s arrest draws focus away from SNP policy and back to police inquiry",
                "webUrl": "https://www.theguardian.com/politics/2023/jun/11/sturgeons-arrest-draws-focus-away-from-snp-policy-and-back-to-police-inquiry",
                "apiUrl": "https://content.guardianapis.com/politics/2023/jun/11/sturgeons-arrest-draws-focus-away-from-snp-policy-and-back-to-police-inquiry",
                "isHosted": false,
                "pillarId": "pillar/news",
                "pillarName": "News"
            },
            {
                "id": "sport/live/2023/jun/11/lancashire-v-hampshire-notts-v-warwickshire-county-cricket-live",
                "type": "liveblog",
                "sectionId": "sport",
                "sectionName": "Sport",
                "webPublicationDate": "2023-06-11T18:27:37Z",
                "webTitle": "Lancashire enjoy dominant first day against Hampshire: county cricket – as it happened",
                "webUrl": "https://www.theguardian.com/sport/live/2023/jun/11/lancashire-v-hampshire-notts-v-warwickshire-county-cricket-live",
                "apiUrl": "https://content.guardianapis.com/sport/live/2023/jun/11/lancashire-v-hampshire-notts-v-warwickshire-county-cricket-live",
                "isHosted": false,
                "pillarId": "pillar/sport",
                "pillarName": "Sport"
            },
            {
                "id": "football/blog/2023/jun/11/manchester-city-champions-league-ascent-is-a-total-victory-for-politics-in-football",
                "type": "article",
                "sectionId": "football",
                "sectionName": "Football",
                "webPublicationDate": "2023-06-11T18:00:57Z",
                "webTitle": "Manchester City’s European ascent is a total victory for politics in football | Barney Ronay",
                "webUrl": "https://www.theguardian.com/football/blog/2023/jun/11/manchester-city-champions-league-ascent-is-a-total-victory-for-politics-in-football",
                "apiUrl": "https://content.guardianapis.com/football/blog/2023/jun/11/manchester-city-champions-league-ascent-is-a-total-victory-for-politics-in-football",
                "isHosted": false,
                "pillarId": "pillar/sport",
                "pillarName": "Sport"
            },
            {
                "id": "world/2023/jun/11/ukraine-claims-to-have-liberated-two-frontline-villages-in-donetsk",
                "type": "article",
                "sectionId": "world",
                "sectionName": "World news",
                "webPublicationDate": "2023-06-11T17:56:28Z",
                "webTitle": "Ukraine claims to have liberated three frontline villages in Donetsk",
                "webUrl": "https://www.theguardian.com/world/2023/jun/11/ukraine-claims-to-have-liberated-two-frontline-villages-in-donetsk",
                "apiUrl": "https://content.guardianapis.com/world/2023/jun/11/ukraine-claims-to-have-liberated-two-frontline-villages-in-donetsk",
                "isHosted": false,
                "pillarId": "pillar/news",
                "pillarName": "News"
            },
            {
                "id": "world/2023/jun/11/us-musician-travis-michael-leake-arrested-in-moscow-denies-drug-trafficking-accusations",
                "type": "article",
                "sectionId": "world",
                "sectionName": "World news",
                "webPublicationDate": "2023-06-11T17:35:12Z",
                "webTitle": "US musician arrested in Moscow bewildered at drugs charges",
                "webUrl": "https://www.theguardian.com/world/2023/jun/11/us-musician-travis-michael-leake-arrested-in-moscow-denies-drug-trafficking-accusations",
                "apiUrl": "https://content.guardianapis.com/world/2023/jun/11/us-musician-travis-michael-leake-arrested-in-moscow-denies-drug-trafficking-accusations",
                "isHosted": false,
                "pillarId": "pillar/news",
                "pillarName": "News"
            },
            {
                "id": "football/2023/jun/11/best-time-of-my-life-man-city-fans-reflect-as-treble-win-sinks-in",
                "type": "article",
                "sectionId": "football",
                "sectionName": "Football",
                "webPublicationDate": "2023-06-11T17:32:26Z",
                "webTitle": "‘Best time of my life’: Manchester City fans reflect as treble win sinks in",
                "webUrl": "https://www.theguardian.com/football/2023/jun/11/best-time-of-my-life-man-city-fans-reflect-as-treble-win-sinks-in",
                "apiUrl": "https://content.guardianapis.com/football/2023/jun/11/best-time-of-my-life-man-city-fans-reflect-as-treble-win-sinks-in",
                "isHosted": false,
                "pillarId": "pillar/sport",
                "pillarName": "Sport"
            }
        ]
    }
}